Extract specific country and year data — filter_countries_years • PFUPipelineTools
…
country, year
See IEATools::iea_cols.

    Value

    A data frame with the desired IEA data only.

    Examples

IEATools::sample_iea_data_path() |>
  IEATools::load_tidy_iea_df() |>
  filter_countries_years(countries = c("ZAF"), years = 1960:1999)
#> # A tibble: 98 × 11
#>    Country Method EnergyType LastStage  Year LedgerSide FlowAggregationPoint    
#>    <chr>   <chr>  <chr>      <chr>     <dbl> <chr>      <chr>                   
#>  1 ZAF     PCM    E          Final      1971 Supply     Total primary energy su…
#>  2 ZAF     PCM    E          Final      1971 Supply     Total primary energy su…
#>  3 ZAF     PCM    E          Final      1971 Supply     Total primary energy su…
#>  4 ZAF     PCM    E          Final      1971 Supply     Total primary energy su…
#>  5 ZAF     PCM    E          Final      1971 Supply     Total primary energy su…
#>  6 ZAF     PCM    E          Final      1971 Supply     Total primary energy su…
#>  7 ZAF     PCM    E          Final      1971 Supply     Total primary energy su…
#>  8 ZAF     PCM    E          Final      1971 Supply     Total primary energy su…
#>  9 ZAF     PCM    E          Final      1971 Supply     Total primary energy su…
#> 10 ZAF     PCM    E          Final      1971 Supply     Total primary energy su…
#> # ℹ 88 more rows
#> # ℹ 4 more variables: Flow <chr>, Product <chr>, Unit <chr>, Edot <dbl>
…
